{
  "revenue": {
    "label": "Revenue",
    "id": "revenue",
    "type": "group",
    "group": [
      {
        "id": "impot_revenues"
      }
    ],
    "output": {
      "id": "revenue_net"
    }
  },
  "impot_revenues": {
    "label": "Impôt sur le revenue",
    "id": "impot_revenues",
    "type": "tax"
  },
  "revenue_net": {
    "label": "Revenue net",
    "id": "revenue_net",
    "type": "benefit"
  }
}